[
  {
    "block": {
      "Properties": {
        "west": "false",
        "up": "true",
        "south": "true",
        "north": "false",
        "east": "false",
        "down": "false"
      },
      "Name": "minecraft:chorus_plant"
    },
    "x": 1,
    "y": 4,
    "z": 0
  },
  {
    "block": {
      "Properties": {
        "age": "5"
      },
      "Name": "minecraft:chorus_flower"
    },
    "x": 1,
    "y": 5,
    "z": 0
  },
  {
    "block": {
      "Properties": {
        "west": "false",
        "up": "true",
        "south": "false",
        "north": "false",
        "east": "false",
        "down": "true"
      },
      "Name": "minecraft:chorus_plant"
    },
    "x": -1,
    "y": -1,
    "z": 1
  },
  {
    "block": {
      "Properties": {
        "west": "false",
        "up": "false",
        "south": "false",
        "north": "false",
        "east": "true",
        "down": "true"
      },
      "Name": "minecraft:chorus_plant"
    },
    "x": -1,
    "y": 0,
    "z": 1
  },
  {
    "block": {
      "Properties": {
        "west": "true",
        "up": "true",
        "south": "false",
        "north": "true",
        "east": "false",
        "down": "false"
      },
      "Name": "minecraft:chorus_plant"
    },
    "x": 0,
    "y": 0,
    "z": 1
  },
  {
    "block": {
      "Properties": {
        "west": "false",
        "up": "true",
        "south": "false",
        "north": "false",
        "east": "false",
        "down": "true"
      },
      "Name": "minecraft:chorus_plant"
    },
    "x": 0,
    "y": 1,
    "z": 1
  },
  {
    "block": {
      "Properties": {
        "west": "false",
        "up": "true",
        "south": "false",
        "north": "false",
        "east": "true",
        "down": "false"
      },
      "Name": "minecraft:chorus_plant"
    },
    "x": -1,
    "y": 2,
    "z": 1
  },
  {
    "block": {
      "Properties": {
        "west": "true",
        "up": "false",
        "south": "true",
        "north": "false",
        "east": "true",
        "down": "true"
      },
      "Name": "minecraft:chorus_plant"
    },
    "x": 0,
    "y": 2,
    "z": 1
  },
  {
    "block": {
      "Properties": {
        "west": "true",
        "up": "true",
        "south": "false",
        "north": "false",
        "east": "false",
        "down": "false"
      },
      "Name": "minecraft:chorus_plant"
    },
    "x": 1,
    "y": 2,
    "z": 1
  },
  {
    "block": {
      "Properties": {
        "west": "false",
        "up": "true",
        "south": "false",
        "north": "false",
        "east": "false",
        "down": "true"
      },
      "Name": "minecraft:chorus_plant"
    },
    "x": -1,
    "y": 3,
    "z": 1
  },
  {
    "block": {
      "Properties": {
        "west": "false",
        "up": "true",
        "south": "false",
        "north": "false",
        "east": "false",
        "down": "true"
      },
      "Name": "minecraft:chorus_plant"
    },
    "x": 1,
    "y": 3,
    "z": 1
  },
  {
    "block": {
      "Properties": {
        "age": "5"
      },
      "Name": "minecraft:chorus_flower"
    },
    "x": -1,
    "y": 4,
    "z": 1
  },
  {
    "block": {
      "Properties": {
        "west": "false",
        "up": "false",
        "south": "false",
        "north": "true",
        "east": "false",
        "down": "true"
      },
      "Name": "minecraft:chorus_plant"
    },
    "x": 1,
    "y": 4,
    "z": 1
  },
  {
    "block": {
      "Properties": {
        "west": "false",
        "up": "true",
        "south": "false",
        "north": "true",
        "east": "false",
        "down": "false"
      },
      "Name": "minecraft:chorus_plant"
    },
    "x": 0,
    "y": 2,
    "z": 2
  },
  {
    "block": {
      "Properties": {
        "west": "false",
        "up": "false",
        "south": "true",
        "north": "false",
        "east": "false",
        "down": "true"
      },
      "Name": "minecraft:chorus_plant"
    },
    "x": 0,
    "y": 3,
    "z": 2
  },
  {
    "block": {
      "Properties": {
        "west": "false",
        "up": "true",
        "south": "false",
        "north": "true",
        "east": "false",
        "down": "false"
      },
      "Name": "minecraft:chorus_plant"
    },
    "x": 0,
    "y": 3,
    "z": 3
  },
  {
    "block": {
      "Properties": {
        "age": "5"
      },
      "Name": "minecraft:chorus_flower"
    },
    "x": 0,
    "y": 4,
    "z": 3
  }
]