[
  {
    "block": {
      "Name": "minecraft:cut_sandstone"
    },
    "x": -2,
    "y": -1,
    "z": -2
  },
  {
    "block": {
      "Name": "minecraft:smooth_sandstone"
    },
    "x": -1,
    "y": -1,
    "z": -2
  },
  {
    "block": {
      "Name": "minecraft:smooth_sandstone"
    },
    "x": 0,
    "y": -1,
    "z": -2
  },
  {
    "block": {
      "Name": "minecraft:smooth_sandstone"
    },
    "x": 1,
    "y": -1,
    "z": -2
  },
  {
    "block": {
      "Name": "minecraft:cut_sandstone"
    },
    "x": 2,
    "y": -1,
    "z": -2
  },
  {
    "block": {
      "Name": "minecraft:cut_sandstone"
    },
    "x": -2,
    "y": 0,
    "z": -2
  },
  {
    "block": {
      "Name": "minecraft:smooth_sandstone"
    },
    "x": -1,
    "y": 0,
    "z": -2
  },
  {
    "block": {
      "Name": "minecraft:smooth_sandstone"
    },
    "x": 0,
    "y": 0,
    "z": -2
  },
  {
    "block": {
      "Name": "minecraft:smooth_sandstone"
    },
    "x": 1,
    "y": 0,
    "z": -2
  },
  {
    "block": {
      "Name": "minecraft:cut_sandstone"
    },
    "x": 2,
    "y": 0,
    "z": -2
  },
  {
    "block": {
      "Name": "minecraft:cut_sandstone"
    },
    "x": -2,
    "y": 1,
    "z": -2
  },
  {
    "block": {
      "Name": "minecraft:smooth_sandstone"
    },
    "x": -1,
    "y": 1,
    "z": -2
  },
  {
    "block": {
      "Properties": {
        "waterlogged": "false",
        "type": "top"
      },
      "Name": "minecraft:smooth_sandstone_slab"
    },
    "x": 0,
    "y": 1,
    "z": -2
  },
  {
    "block": {
      "Name": "minecraft:smooth_sandstone"
    },
    "x": 1,
    "y": 1,
    "z": -2
  },
  {
    "block": {
      "Name": "minecraft:cut_sandstone"
    },
    "x": 2,
    "y": 1,
    "z": -2
  },
  {
    "block": {
      "Properties": {
        "waterlogged": "false",
        "shape": "straight",
        "half": "bottom",
        "facing": "east"
      },
      "Name": "minecraft:smooth_sandstone_stairs"
    },
    "x": -2,
    "y": 2,
    "z": -2
  },
  {
    "block": {
      "Properties": {
        "waterlogged": "false",
        "shape": "straight",
        "half": "bottom",
        "facing": "west"
      },
      "Name": "minecraft:smooth_sandstone_stairs"
    },
    "x": -1,
    "y": 2,
    "z": -2
  },
  {
    "block": {
      "Properties": {
        "waterlogged": "false",
        "type": "bottom"
      },
      "Name": "minecraft:smooth_sandstone_slab"
    },
    "x": 0,
    "y": 2,
    "z": -2
  },
  {
    "block": {
      "Properties": {
        "waterlogged": "false",
        "shape": "straight",
        "half": "bottom",
        "facing": "east"
      },
      "Name": "minecraft:smooth_sandstone_stairs"
    },
    "x": 1,
    "y": 2,
    "z": -2
  },
  {
    "block": {
      "Properties": {
        "waterlogged": "false",
        "shape": "straight",
        "half": "bottom",
        "facing": "west"
      },
      "Name": "minecraft:smooth_sandstone_stairs"
    },
    "x": 2,
    "y": 2,
    "z": -2
  },
  {
    "block": {
      "Name": "minecraft:smooth_sandstone"
    },
    "x": -2,
    "y": -1,
    "z": -1
  },
  {
    "block": {
      "Properties": {
        "waterlogged": "false",
        "shape": "straight",
        "half": "bottom",
        "facing": "north"
      },
      "Name": "minecraft:smooth_sandstone_stairs"
    },
    "x": -1,
    "y": -1,
    "z": -1
  },
  {
    "block": {
      "Properties": {
        "part": "head",
        "occupied": "false",
        "facing": "north"
      },
      "Name": "minecraft:green_bed"
    },
    "x": 1,
    "y": -1,
    "z": -1
  },
  {
    "block": {
      "Name": "minecraft:smooth_sandstone"
    },
    "x": 2,
    "y": -1,
    "z": -1
  },
  {
    "block": {
      "Name": "minecraft:smooth_sandstone"
    },
    "x": -2,
    "y": 0,
    "z": -1
  },
  {
    "block": {
      "Name": "minecraft:smooth_sandstone"
    },
    "x": 2,
    "y": 0,
    "z": -1
  },
  {
    "block": {
      "Name": "minecraft:smooth_sandstone"
    },
    "x": -2,
    "y": 1,
    "z": -1
  },
  {
    "block": {
      "Properties": {
        "waterlogged": "false",
        "type": "top"
      },
      "Name": "minecraft:smooth_sandstone_slab"
    },
    "x": -1,
    "y": 1,
    "z": -1
  },
  {
    "block": {
      "Properties": {
        "waterlogged": "false",
        "type": "top"
      },
      "Name": "minecraft:smooth_sandstone_slab"
    },
    "x": 0,
    "y": 1,
    "z": -1
  },
  {
    "block": {
      "Properties": {
        "waterlogged": "false",
        "type": "top"
      },
      "Name": "minecraft:smooth_sandstone_slab"
    },
    "x": 1,
    "y": 1,
    "z": -1
  },
  {
    "block": {
      "Name": "minecraft:smooth_sandstone"
    },
    "x": 2,
    "y": 1,
    "z": -1
  },
  {
    "block": {
      "Name": "minecraft:smooth_sandstone"
    },
    "x": -2,
    "y": -1,
    "z": 0
  },
  {
    "block": {
      "Name": "minecraft:cut_sandstone"
    },
    "x": -1,
    "y": -1,
    "z": 0
  },
  {
    "block": {
      "Properties": {
        "part": "foot",
        "occupied": "false",
        "facing": "north"
      },
      "Name": "minecraft:green_bed"
    },
    "x": 1,
    "y": -1,
    "z": 0
  },
  {
    "block": {
      "Name": "minecraft:smooth_sandstone"
    },
    "x": 2,
    "y": -1,
    "z": 0
  },
  {
    "block": {
      "Name": "minecraft:smooth_sandstone"
    },
    "x": -2,
    "y": 0,
    "z": 0
  },
  {
    "block": {
      "Name": "minecraft:potted_dead_bush"
    },
    "x": -1,
    "y": 0,
    "z": 0
  },
  {
    "block": {
      "Name": "minecraft:smooth_sandstone"
    },
    "x": 2,
    "y": 0,
    "z": 0
  },
  {
    "block": {
      "Properties": {
        "waterlogged": "false",
        "type": "top"
      },
      "Name": "minecraft:smooth_sandstone_slab"
    },
    "x": -2,
    "y": 1,
    "z": 0
  },
  {
    "block": {
      "Properties": {
        "waterlogged": "false",
        "type": "top"
      },
      "Name": "minecraft:smooth_sandstone_slab"
    },
    "x": -1,
    "y": 1,
    "z": 0
  },
  {
    "block": {
      "Properties": {
        "waterlogged": "false",
        "type": "top"
      },
      "Name": "minecraft:smooth_sandstone_slab"
    },
    "x": 0,
    "y": 1,
    "z": 0
  },
  {
    "block": {
      "Properties": {
        "waterlogged": "false",
        "type": "top"
      },
      "Name": "minecraft:smooth_sandstone_slab"
    },
    "x": 1,
    "y": 1,
    "z": 0
  },
  {
    "block": {
      "Properties": {
        "waterlogged": "false",
        "type": "top"
      },
      "Name": "minecraft:smooth_sandstone_slab"
    },
    "x": 2,
    "y": 1,
    "z": 0
  },
  {
    "block": {
      "Name": "minecraft:smooth_sandstone"
    },
    "x": -2,
    "y": -1,
    "z": 1
  },
  {
    "block": {
      "Properties": {
        "waterlogged": "false",
        "shape": "straight",
        "half": "bottom",
        "facing": "south"
      },
      "Name": "minecraft:smooth_sandstone_stairs"
    },
    "x": -1,
    "y": -1,
    "z": 1
  },
  {
    "block": {
      "Name": "minecraft:smooth_sandstone"
    },
    "x": 2,
    "y": -1,
    "z": 1
  },
  {
    "block": {
      "Name": "minecraft:smooth_sandstone"
    },
    "x": -2,
    "y": 0,
    "z": 1
  },
  {
    "block": {
      "Properties": {
        "facing": "north"
      },
      "Name": "minecraft:wall_torch"
    },
    "x": -1,
    "y": 0,
    "z": 1
  },
  {
    "block": {
      "Properties": {
        "facing": "north"
      },
      "Name": "minecraft:wall_torch"
    },
    "x": 1,
    "y": 0,
    "z": 1
  },
  {
    "block": {
      "Name": "minecraft:smooth_sandstone"
    },
    "x": 2,
    "y": 0,
    "z": 1
  },
  {
    "block": {
      "Name": "minecraft:smooth_sandstone"
    },
    "x": -2,
    "y": 1,
    "z": 1
  },
  {
    "block": {
      "Properties": {
        "waterlogged": "false",
        "type": "top"
      },
      "Name": "minecraft:smooth_sandstone_slab"
    },
    "x": -1,
    "y": 1,
    "z": 1
  },
  {
    "block": {
      "Properties": {
        "waterlogged": "false",
        "type": "top"
      },
      "Name": "minecraft:smooth_sandstone_slab"
    },
    "x": 0,
    "y": 1,
    "z": 1
  },
  {
    "block": {
      "Properties": {
        "waterlogged": "false",
        "type": "top"
      },
      "Name": "minecraft:smooth_sandstone_slab"
    },
    "x": 1,
    "y": 1,
    "z": 1
  },
  {
    "block": {
      "Name": "minecraft:smooth_sandstone"
    },
    "x": 2,
    "y": 1,
    "z": 1
  },
  {
    "block": {
      "Name": "minecraft:cut_sandstone"
    },
    "x": -2,
    "y": -1,
    "z": 2
  },
  {
    "block": {
      "Name": "minecraft:smooth_sandstone"
    },
    "x": -1,
    "y": -1,
    "z": 2
  },
  {
    "block": {
      "Properties": {
        "powered": "false",
        "open": "false",
        "hinge": "left",
        "half": "lower",
        "facing": "south"
      },
      "Name": "minecraft:jungle_door"
    },
    "x": 0,
    "y": -1,
    "z": 2
  },
  {
    "block": {
      "Name": "minecraft:smooth_sandstone"
    },
    "x": 1,
    "y": -1,
    "z": 2
  },
  {
    "block": {
      "Name": "minecraft:cut_sandstone"
    },
    "x": 2,
    "y": -1,
    "z": 2
  },
  {
    "block": {
      "Name": "minecraft:cut_sandstone"
    },
    "x": -2,
    "y": 0,
    "z": 2
  },
  {
    "block": {
      "Name": "minecraft:smooth_sandstone"
    },
    "x": -1,
    "y": 0,
    "z": 2
  },
  {
    "block": {
      "Properties": {
        "powered": "false",
        "open": "false",
        "hinge": "left",
        "half": "upper",
        "facing": "south"
      },
      "Name": "minecraft:jungle_door"
    },
    "x": 0,
    "y": 0,
    "z": 2
  },
  {
    "block": {
      "Name": "minecraft:smooth_sandstone"
    },
    "x": 1,
    "y": 0,
    "z": 2
  },
  {
    "block": {
      "Name": "minecraft:cut_sandstone"
    },
    "x": 2,
    "y": 0,
    "z": 2
  },
  {
    "block": {
      "Name": "minecraft:cut_sandstone"
    },
    "x": -2,
    "y": 1,
    "z": 2
  },
  {
    "block": {
      "Properties": {
        "waterlogged": "false",
        "type": "double"
      },
      "Name": "minecraft:smooth_sandstone_slab"
    },
    "x": -1,
    "y": 1,
    "z": 2
  },
  {
    "block": {
      "Name": "minecraft:smooth_sandstone"
    },
    "x": 0,
    "y": 1,
    "z": 2
  },
  {
    "block": {
      "Properties": {
        "waterlogged": "false",
        "type": "double"
      },
      "Name": "minecraft:smooth_sandstone_slab"
    },
    "x": 1,
    "y": 1,
    "z": 2
  },
  {
    "block": {
      "Name": "minecraft:cut_sandstone"
    },
    "x": 2,
    "y": 1,
    "z": 2
  },
  {
    "block": {
      "Properties": {
        "waterlogged": "false",
        "shape": "straight",
        "half": "bottom",
        "facing": "east"
      },
      "Name": "minecraft:smooth_sandstone_stairs"
    },
    "x": -2,
    "y": 2,
    "z": 2
  },
  {
    "block": {
      "Properties": {
        "waterlogged": "false",
        "shape": "straight",
        "half": "bottom",
        "facing": "west"
      },
      "Name": "minecraft:smooth_sandstone_stairs"
    },
    "x": -1,
    "y": 2,
    "z": 2
  },
  {
    "block": {
      "Properties": {
        "waterlogged": "false",
        "type": "bottom"
      },
      "Name": "minecraft:smooth_sandstone_slab"
    },
    "x": 0,
    "y": 2,
    "z": 2
  },
  {
    "block": {
      "Properties": {
        "waterlogged": "false",
        "shape": "straight",
        "half": "bottom",
        "facing": "east"
      },
      "Name": "minecraft:smooth_sandstone_stairs"
    },
    "x": 1,
    "y": 2,
    "z": 2
  },
  {
    "block": {
      "Properties": {
        "waterlogged": "false",
        "shape": "straight",
        "half": "bottom",
        "facing": "west"
      },
      "Name": "minecraft:smooth_sandstone_stairs"
    },
    "x": 2,
    "y": 2,
    "z": 2
  }
]