[
  {
    "block": {
      "Name": "minecraft:snow_block"
    },
    "x": 0,
    "y": -2,
    "z": -7
  },
  {
    "block": {
      "Name": "minecraft:snow_block"
    },
    "x": -1,
    "y": -2,
    "z": -6
  },
  {
    "block": {
      "Name": "minecraft:snow_block"
    },
    "x": 0,
    "y": -2,
    "z": -6
  },
  {
    "block": {
      "Name": "minecraft:snow_block"
    },
    "x": 1,
    "y": -2,
    "z": -6
  },
  {
    "block": {
      "Name": "minecraft:snow_block"
    },
    "x": 2,
    "y": -2,
    "z": -6
  },
  {
    "block": {
      "Properties": {
        "layers": "2"
      },
      "Name": "minecraft:snow"
    },
    "x": -1,
    "y": -1,
    "z": -6
  },
  {
    "block": {
      "Name": "minecraft:snow_block"
    },
    "x": 0,
    "y": -1,
    "z": -6
  },
  {
    "block": {
      "Properties": {
        "waterlogged": "false",
        "shape": "straight",
        "half": "bottom",
        "facing": "east"
      },
      "Name": "minecraft:spruce_stairs"
    },
    "x": -3,
    "y": -2,
    "z": -5
  },
  {
    "block": {
      "Properties": {
        "moisture": "7"
      },
      "Name": "minecraft:farmland"
    },
    "x": -2,
    "y": -2,
    "z": -5
  },
  {
    "block": {
      "Properties": {
        "moisture": "7"
      },
      "Name": "minecraft:farmland"
    },
    "x": -1,
    "y": -2,
    "z": -5
  },
  {
    "block": {
      "Properties": {
        "moisture": "7"
      },
      "Name": "minecraft:farmland"
    },
    "x": 0,
    "y": -2,
    "z": -5
  },
  {
    "block": {
      "Properties": {
        "moisture": "7"
      },
      "Name": "minecraft:farmland"
    },
    "x": 1,
    "y": -2,
    "z": -5
  },
  {
    "block": {
      "Name": "minecraft:snow_block"
    },
    "x": 2,
    "y": -2,
    "z": -5
  },
  {
    "block": {
      "Name": "minecraft:snow_block"
    },
    "x": 3,
    "y": -2,
    "z": -5
  },
  {
    "block": {
      "Properties": {
        "age": "0"
      },
      "Name": "minecraft:wheat"
    },
    "x": -2,
    "y": -1,
    "z": -5
  },
  {
    "block": {
      "Properties": {
        "age": "0"
      },
      "Name": "minecraft:wheat"
    },
    "x": -1,
    "y": -1,
    "z": -5
  },
  {
    "block": {
      "Properties": {
        "age": "0"
      },
      "Name": "minecraft:wheat"
    },
    "x": 0,
    "y": -1,
    "z": -5
  },
  {
    "block": {
      "Properties": {
        "age": "0"
      },
      "Name": "minecraft:wheat"
    },
    "x": 1,
    "y": -1,
    "z": -5
  },
  {
    "block": {
      "Properties": {
        "layers": "2"
      },
      "Name": "minecraft:snow"
    },
    "x": 2,
    "y": -1,
    "z": -5
  },
  {
    "block": {
      "Properties": {
        "moisture": "7"
      },
      "Name": "minecraft:farmland"
    },
    "x": -2,
    "y": -2,
    "z": -4
  },
  {
    "block": {
      "Properties": {
        "moisture": "6"
      },
      "Name": "minecraft:farmland"
    },
    "x": -1,
    "y": -2,
    "z": -4
  },
  {
    "block": {
      "Properties": {
        "level": "0"
      },
      "Name": "minecraft:water"
    },
    "x": 0,
    "y": -2,
    "z": -4
  },
  {
    "block": {
      "Properties": {
        "moisture": "7"
      },
      "Name": "minecraft:farmland"
    },
    "x": 1,
    "y": -2,
    "z": -4
  },
  {
    "block": {
      "Properties": {
        "moisture": "7"
      },
      "Name": "minecraft:farmland"
    },
    "x": 2,
    "y": -2,
    "z": -4
  },
  {
    "block": {
      "Name": "minecraft:snow_block"
    },
    "x": 3,
    "y": -2,
    "z": -4
  },
  {
    "block": {
      "Properties": {
        "age": "0"
      },
      "Name": "minecraft:wheat"
    },
    "x": -2,
    "y": -1,
    "z": -4
  },
  {
    "block": {
      "Properties": {
        "age": "0"
      },
      "Name": "minecraft:wheat"
    },
    "x": -1,
    "y": -1,
    "z": -4
  },
  {
    "block": {
      "Properties": {
        "age": "0"
      },
      "Name": "minecraft:wheat"
    },
    "x": 1,
    "y": -1,
    "z": -4
  },
  {
    "block": {
      "Properties": {
        "age": "0"
      },
      "Name": "minecraft:wheat"
    },
    "x": 2,
    "y": -1,
    "z": -4
  },
  {
    "block": {
      "Name": "minecraft:snow_block"
    },
    "x": -3,
    "y": -2,
    "z": -3
  },
  {
    "block": {
      "Properties": {
        "moisture": "7"
      },
      "Name": "minecraft:farmland"
    },
    "x": -2,
    "y": -2,
    "z": -3
  },
  {
    "block": {
      "Properties": {
        "moisture": "0"
      },
      "Name": "minecraft:farmland"
    },
    "x": -1,
    "y": -2,
    "z": -3
  },
  {
    "block": {
      "Name": "minecraft:snow_block"
    },
    "x": 0,
    "y": -2,
    "z": -3
  },
  {
    "block": {
      "Properties": {
        "moisture": "7"
      },
      "Name": "minecraft:farmland"
    },
    "x": 1,
    "y": -2,
    "z": -3
  },
  {
    "block": {
      "Properties": {
        "moisture": "7"
      },
      "Name": "minecraft:farmland"
    },
    "x": 2,
    "y": -2,
    "z": -3
  },
  {
    "block": {
      "Name": "minecraft:snow_block"
    },
    "x": 3,
    "y": -2,
    "z": -3
  },
  {
    "block": {
      "Properties": {
        "age": "0"
      },
      "Name": "minecraft:wheat"
    },
    "x": -2,
    "y": -1,
    "z": -3
  },
  {
    "block": {
      "Properties": {
        "age": "0"
      },
      "Name": "minecraft:wheat"
    },
    "x": -1,
    "y": -1,
    "z": -3
  },
  {
    "block": {
      "Properties": {
        "waterlogged": "false",
        "hanging": "false"
      },
      "Name": "minecraft:lantern"
    },
    "x": 0,
    "y": -1,
    "z": -3
  },
  {
    "block": {
      "Properties": {
        "age": "1"
      },
      "Name": "minecraft:wheat"
    },
    "x": 1,
    "y": -1,
    "z": -3
  },
  {
    "block": {
      "Properties": {
        "age": "0"
      },
      "Name": "minecraft:wheat"
    },
    "x": 2,
    "y": -1,
    "z": -3
  },
  {
    "block": {
      "Name": "minecraft:snow_block"
    },
    "x": -2,
    "y": -2,
    "z": -2
  },
  {
    "block": {
      "Properties": {
        "moisture": "7"
      },
      "Name": "minecraft:farmland"
    },
    "x": -1,
    "y": -2,
    "z": -2
  },
  {
    "block": {
      "Properties": {
        "level": "0"
      },
      "Name": "minecraft:water"
    },
    "x": 0,
    "y": -2,
    "z": -2
  },
  {
    "block": {
      "Properties": {
        "moisture": "7"
      },
      "Name": "minecraft:farmland"
    },
    "x": 1,
    "y": -2,
    "z": -2
  },
  {
    "block": {
      "Properties": {
        "moisture": "7"
      },
      "Name": "minecraft:farmland"
    },
    "x": 2,
    "y": -2,
    "z": -2
  },
  {
    "block": {
      "Name": "minecraft:snow_block"
    },
    "x": 3,
    "y": -2,
    "z": -2
  },
  {
    "block": {
      "Properties": {
        "age": "0"
      },
      "Name": "minecraft:wheat"
    },
    "x": -1,
    "y": -1,
    "z": -2
  },
  {
    "block": {
      "Properties": {
        "age": "0"
      },
      "Name": "minecraft:wheat"
    },
    "x": 1,
    "y": -1,
    "z": -2
  },
  {
    "block": {
      "Properties": {
        "age": "0"
      },
      "Name": "minecraft:wheat"
    },
    "x": 2,
    "y": -1,
    "z": -2
  },
  {
    "block": {
      "Name": "minecraft:snow_block"
    },
    "x": -3,
    "y": -2,
    "z": -1
  },
  {
    "block": {
      "Name": "minecraft:snow_block"
    },
    "x": -2,
    "y": -2,
    "z": -1
  },
  {
    "block": {
      "Properties": {
        "moisture": "7"
      },
      "Name": "minecraft:farmland"
    },
    "x": -1,
    "y": -2,
    "z": -1
  },
  {
    "block": {
      "Properties": {
        "moisture": "7"
      },
      "Name": "minecraft:farmland"
    },
    "x": 0,
    "y": -2,
    "z": -1
  },
  {
    "block": {
      "Properties": {
        "moisture": "7"
      },
      "Name": "minecraft:farmland"
    },
    "x": 1,
    "y": -2,
    "z": -1
  },
  {
    "block": {
      "Name": "minecraft:snow_block"
    },
    "x": 2,
    "y": -2,
    "z": -1
  },
  {
    "block": {
      "Properties": {
        "layers": "1"
      },
      "Name": "minecraft:snow"
    },
    "x": -3,
    "y": -1,
    "z": -1
  },
  {
    "block": {
      "Name": "minecraft:snow_block"
    },
    "x": -2,
    "y": -1,
    "z": -1
  },
  {
    "block": {
      "Properties": {
        "age": "2"
      },
      "Name": "minecraft:wheat"
    },
    "x": -1,
    "y": -1,
    "z": -1
  },
  {
    "block": {
      "Properties": {
        "age": "1"
      },
      "Name": "minecraft:wheat"
    },
    "x": 0,
    "y": -1,
    "z": -1
  },
  {
    "block": {
      "Properties": {
        "age": "0"
      },
      "Name": "minecraft:wheat"
    },
    "x": 1,
    "y": -1,
    "z": -1
  },
  {
    "block": {
      "Name": "minecraft:snow_block"
    },
    "x": 2,
    "y": -1,
    "z": -1
  },
  {
    "block": {
      "Properties": {
        "moisture": "0"
      },
      "Name": "minecraft:farmland"
    },
    "x": -1,
    "y": -2,
    "z": 0
  },
  {
    "block": {
      "Name": "minecraft:snow_block"
    },
    "x": 0,
    "y": -2,
    "z": 0
  },
  {
    "block": {
      "Name": "minecraft:snow_block"
    },
    "x": 1,
    "y": -2,
    "z": 0
  },
  {
    "block": {
      "Name": "minecraft:snow_block"
    },
    "x": 2,
    "y": -2,
    "z": 0
  },
  {
    "block": {
      "Properties": {
        "age": "1"
      },
      "Name": "minecraft:wheat"
    },
    "x": -1,
    "y": -1,
    "z": 0
  },
  {
    "block": {
      "Name": "minecraft:snow_block"
    },
    "x": 1,
    "y": -1,
    "z": 0
  },
  {
    "block": {
      "Name": "minecraft:snow_block"
    },
    "x": -2,
    "y": -2,
    "z": 1
  },
  {
    "block": {
      "Name": "minecraft:snow_block"
    },
    "x": -1,
    "y": -2,
    "z": 1
  },
  {
    "block": {
      "Name": "minecraft:snow_block"
    },
    "x": 0,
    "y": -2,
    "z": 1
  },
  {
    "block": {
      "Name": "minecraft:snow_block"
    },
    "x": 0,
    "y": -1,
    "z": 1
  }
]