{
  	"variants": {
    	"facing=north":{
			"model": "tardis:block/ars_egg",
			"y": 0
		},
		"facing=east":{
			"model": "tardis:block/ars_egg",
			"y": 90
		},
		"facing=south":{
			"model": "tardis:block/ars_egg",
			"y": 180
		},
		"facing=west":{
			"model": "tardis:block/ars_egg",
			"y": 270
		}
  	}
}