{
  "variants": {
    "mode=corner": {
      "model": "tardis:block/structure_block_corner"
    },
    "mode=data": {
      "model": "tardis:block/structure_block_data"
    },
    "mode=load": {
      "model": "tardis:block/structure_block_load"
    },
    "mode=save": {
      "model": "tardis:block/structure_block_save"
    }
  }
}