{
  "display_name": "Subsystems",
  "pages": [
    "tardis:subsystem/subsystem_cover",
    "tardis:subsystem/dematerialisation_circuit",
    "tardis:subsystem/fluid_link",
    "tardis:subsystem/nav_com",
    "tardis:subsystem/stabilizer",
    "tardis:subsystem/shield_generator",
    "tardis:subsystem/temporal_grace",
    "tardis:subsystem/interstitial_antenna"
  ]
}