{
	"type": "tardis:quantiscope",
	"repair":false,
	"processing_ticks": 400,
	"ingredients":[
		{"item":"tardis:int_door"},
		{"item":"minecraft:gold_nugget"},
		{"item":"minecraft:redstone"},
		{"item":"tardis:circuits"},
		{"item":"minecraft:ender_pearl"}
	],
	"result":{
		"item":"tardis:timeship_backdoor"
	}
}