{
	"type":"minecraft:crafting_shaped",
	"pattern":[
		"CCG",
		"CCG",
		"CCG"
	],
	"key":{
		"C":{
			"item":"minecraft:dried_kelp"
		},
		"G":{
			"item":"minecraft:gold_nugget"
		}
	},
	"result":{
		"item":"tardis:blank_upgrade"
	}
}