{
	"type":"minecraft:crafting_shaped",
	"pattern":[
		"GXG",
		"XCX",
		"GXG"
	],
	"key":{
		"G":{
			"item":"minecraft:white_stained_glass"
		},
		"X":{
			"item":"tardis:xion_crystal"
		},
		"C":{
			"item":"tardis:circuits"
		}
	},
	"result":{
		"item":"tardis:psychic_cube"
	}
}