{
	"credit": "Made with Blockbench",
	"texture_size": [32, 32],
	"textures": {
		"25": "tardis:item/sonics/mk5_emitter"
	},
	"elements": [
		{
			"name": "octagon",
			"from": [1.03393, 3.11675, 0.58194],
			"to": [1.96285, 5.35936, 1.05056],
			"rotation": {"angle": 45, "axis": "z", "origin": [8, 10.73966, 11.03313]},
			"faces": {
				"north": {"uv": [4, 0, 4.5, 1], "texture": "#25"},
				"east": {"uv": [2, 4.5, 2.5, 5.5], "texture": "#25"},
				"south": {"uv": [2.5, 4.5, 3, 5.5], "texture": "#25"},
				"west": {"uv": [4, 4.5, 4.5, 5.5], "texture": "#25"},
				"up": {"uv": [4.5, 2.5, 4, 2], "texture": "#25"},
				"down": {"uv": [7, 4, 6.5, 4.5], "texture": "#25"}
			}
		},
		{
			"name": "octagon",
			"from": [7.53554, 0.42369, 0.58194],
			"to": [8.46446, 2.66631, 1.05056],
			"rotation": {"angle": 0, "axis": "y", "origin": [8, 10.73966, 11.03313]},
			"faces": {
				"north": {"uv": [4.5, 4.5, 5, 5.5], "texture": "#25"},
				"east": {"uv": [4.5, 0, 5, 1], "texture": "#25"},
				"south": {"uv": [4.5, 1, 5, 2], "texture": "#25"},
				"west": {"uv": [4.5, 2, 5, 3], "texture": "#25"},
				"up": {"uv": [7, 6.5, 6.5, 6], "texture": "#25"},
				"down": {"uv": [4.5, 7, 4, 7.5], "texture": "#25"}
			}
		},
		{
			"name": "octagon",
			"from": [0.37708, 3.77359, 0.58194],
			"to": [2.6197, 4.70252, 1.05056],
			"rotation": {"angle": 45, "axis": "z", "origin": [8, 10.73966, 11.03313]},
			"faces": {
				"north": {"uv": [4, 3.5, 5, 4], "texture": "#25"},
				"east": {"uv": [4.5, 7, 5, 7.5], "texture": "#25"},
				"south": {"uv": [0, 5, 1, 5.5], "texture": "#25"},
				"west": {"uv": [5, 7, 5.5, 7.5], "texture": "#25"},
				"up": {"uv": [4, 5.5, 3, 5], "texture": "#25"},
				"down": {"uv": [6, 5, 5, 5.5], "texture": "#25"}
			}
		},
		{
			"name": "octagon",
			"from": [6.87869, 1.08054, 0.58194],
			"to": [9.12131, 2.00946, 1.05056],
			"rotation": {"angle": 0, "axis": "y", "origin": [8, 10.73966, 11.03313]},
			"faces": {
				"north": {"uv": [5, 0, 6, 0.5], "texture": "#25"},
				"east": {"uv": [5.5, 7, 6, 7.5], "texture": "#25"},
				"south": {"uv": [5, 0.5, 6, 1], "texture": "#25"},
				"west": {"uv": [6, 7, 6.5, 7.5], "texture": "#25"},
				"up": {"uv": [6, 1.5, 5, 1], "texture": "#25"},
				"down": {"uv": [6, 1.5, 5, 2], "texture": "#25"}
			}
		},
		{
			"name": "octagon",
			"from": [1.03393, 3.11675, 0.08194],
			"to": [1.96285, 5.35936, 0.30056],
			"rotation": {"angle": 45, "axis": "z", "origin": [8, 10.73966, 11.03313]},
			"faces": {
				"north": {"uv": [5, 2, 5.5, 3], "texture": "#25"},
				"east": {"uv": [5, 3, 5.5, 4], "texture": "#25"},
				"south": {"uv": [0, 5.5, 0.5, 6.5], "texture": "#25"},
				"west": {"uv": [0.5, 5.5, 1, 6.5], "texture": "#25"},
				"up": {"uv": [7.5, 7.5, 7, 7], "texture": "#25"},
				"down": {"uv": [7.5, 0, 7, 0.5], "texture": "#25"}
			}
		},
		{
			"name": "octagon",
			"from": [7.53554, 0.42369, 0.08194],
			"to": [8.46446, 2.66631, 0.30056],
			"rotation": {"angle": 0, "axis": "y", "origin": [8, 10.73966, 11.03313]},
			"faces": {
				"north": {"uv": [1, 5.5, 1.5, 6.5], "texture": "#25"},
				"east": {"uv": [1.5, 5.5, 2, 6.5], "texture": "#25"},
				"south": {"uv": [2, 5.5, 2.5, 6.5], "texture": "#25"},
				"west": {"uv": [2.5, 5.5, 3, 6.5], "texture": "#25"},
				"up": {"uv": [7.5, 1, 7, 0.5], "texture": "#25"},
				"down": {"uv": [7.5, 1, 7, 1.5], "texture": "#25"}
			}
		},
		{
			"name": "octagon",
			"from": [0.37708, 3.77359, 0.08194],
			"to": [2.6197, 4.70252, 0.30056],
			"rotation": {"angle": 45, "axis": "z", "origin": [8, 10.73966, 11.03313]},
			"faces": {
				"north": {"uv": [5, 4.5, 6, 5], "texture": "#25"},
				"east": {"uv": [7, 1.5, 7.5, 2], "texture": "#25"},
				"south": {"uv": [3, 5.5, 4, 6], "texture": "#25"},
				"west": {"uv": [7, 2, 7.5, 2.5], "texture": "#25"},
				"up": {"uv": [5, 6, 4, 5.5], "texture": "#25"},
				"down": {"uv": [6, 5.5, 5, 6], "texture": "#25"}
			}
		},
		{
			"name": "octagon",
			"from": [6.87869, 1.08054, 0.08194],
			"to": [9.12131, 2.00946, 0.30056],
			"rotation": {"angle": 0, "axis": "y", "origin": [8, 10.73966, 11.03313]},
			"faces": {
				"north": {"uv": [5.5, 2, 6.5, 2.5], "texture": "#25"},
				"east": {"uv": [7, 2.5, 7.5, 3], "texture": "#25"},
				"south": {"uv": [5.5, 2.5, 6.5, 3], "texture": "#25"},
				"west": {"uv": [7, 3, 7.5, 3.5], "texture": "#25"},
				"up": {"uv": [6.5, 3.5, 5.5, 3], "texture": "#25"},
				"down": {"uv": [6.5, 3.5, 5.5, 4], "texture": "#25"}
			}
		},
		{
			"name": "octagon",
			"from": [1.73054, 2.95957, -0.11963],
			"to": [2.56657, 4.97793, 0.75213],
			"rotation": {"angle": 45, "axis": "z", "origin": [8, 9.8202, 9.98644]},
			"faces": {
				"north": {"uv": [3, 6, 3.5, 7], "texture": "#25"},
				"east": {"uv": [3.5, 6, 4, 7], "texture": "#25"},
				"south": {"uv": [4, 6, 4.5, 7], "texture": "#25"},
				"west": {"uv": [4.5, 6, 5, 7], "texture": "#25"},
				"up": {"uv": [7.5, 4, 7, 3.5], "texture": "#25"},
				"down": {"uv": [7.5, 4, 7, 4.5], "texture": "#25"}
			}
		},
		{
			"name": "octagon",
			"from": [7.58199, 0.53582, -0.11963],
			"to": [8.41801, 2.55418, 0.75213],
			"rotation": {"angle": 0, "axis": "y", "origin": [8, 9.8202, 9.98644]},
			"faces": {
				"north": {"uv": [5, 6, 5.5, 7], "texture": "#25"},
				"east": {"uv": [5.5, 6, 6, 7], "texture": "#25"},
				"south": {"uv": [6, 6, 6.5, 7], "texture": "#25"},
				"west": {"uv": [6, 0, 6.5, 1], "texture": "#25"},
				"up": {"uv": [7.5, 5, 7, 4.5], "texture": "#25"},
				"down": {"uv": [7.5, 5, 7, 5.5], "texture": "#25"}
			}
		},
		{
			"name": "octagon",
			"from": [1.13938, 3.55073, -0.11963],
			"to": [3.15773, 4.38676, 0.75213],
			"rotation": {"angle": 45, "axis": "z", "origin": [8, 9.8202, 9.98644]},
			"faces": {
				"north": {"uv": [5.5, 4, 6.5, 4.5], "texture": "#25"},
				"east": {"uv": [7, 5.5, 7.5, 6], "texture": "#25"},
				"south": {"uv": [6, 1, 7, 1.5], "texture": "#25"},
				"west": {"uv": [7, 6, 7.5, 6.5], "texture": "#25"},
				"up": {"uv": [7, 2, 6, 1.5], "texture": "#25"},
				"down": {"uv": [7, 4.5, 6, 5], "texture": "#25"}
			}
		},
		{
			"name": "octagon",
			"from": [6.99082, 1.12699, -0.11963],
			"to": [9.00918, 1.96301, 0.75213],
			"rotation": {"angle": 0, "axis": "y", "origin": [8, 9.8202, 9.98644]},
			"faces": {
				"north": {"uv": [6, 5, 7, 5.5], "texture": "#25"},
				"east": {"uv": [7, 6.5, 7.5, 7], "texture": "#25"},
				"south": {"uv": [6, 5.5, 7, 6], "texture": "#25"},
				"west": {"uv": [2, 7.5, 2.5, 8], "texture": "#25"},
				"up": {"uv": [1, 7, 0, 6.5], "texture": "#25"},
				"down": {"uv": [2, 6.5, 1, 7], "texture": "#25"}
			}
		},
		{
			"name": "octagon",
			"from": [7.33199, 0.78582, -0.33838],
			"to": [8.66801, 2.30418, -0.09162],
			"rotation": {"angle": 0, "axis": "y", "origin": [8, 9.8202, 9.98644]},
			"faces": {
				"north": {"uv": [2, 6.5, 2.5, 7.5], "texture": "#25"},
				"east": {"uv": [2.5, 6.5, 3, 7.5], "texture": "#25"},
				"south": {"uv": [6.5, 6.5, 7, 7.5], "texture": "#25"},
				"west": {"uv": [6.5, 0, 7, 1], "texture": "#25"},
				"up": {"uv": [3, 8, 2.5, 7.5], "texture": "#25"},
				"down": {"uv": [4.5, 7.5, 4, 8], "texture": "#25"}
			}
		},
		{
			"name": "octagon",
			"from": [7.83199, 0.81707, -3.33838],
			"to": [8.16801, 2.27293, -0.34162],
			"rotation": {"angle": 0, "axis": "y", "origin": [8, 9.8202, 9.98644]},
			"faces": {
				"north": {"uv": [4.5, 7.5, 5, 8], "texture": "#25"},
				"east": {"uv": [3, 1, 4.5, 1.5], "texture": "#25"},
				"south": {"uv": [5, 7.5, 5.5, 8], "texture": "#25"},
				"west": {"uv": [3, 1.5, 4.5, 2], "texture": "#25"},
				"up": {"uv": [3.5, 5, 3, 3.5], "texture": "#25"},
				"down": {"uv": [4, 3.5, 3.5, 5], "texture": "#25"}
			}
		},
		{
			"name": "octagon",
			"from": [7.40463, 1.80274, -3.67555],
			"to": [7.80787, 2.23726, -0.00445],
			"rotation": {"angle": 0, "axis": "y", "origin": [8, 11.47524, 12.38923]},
			"faces": {
				"north": {"uv": [5.5, 7.5, 6, 8], "texture": "#25"},
				"east": {"uv": [0, 0, 2, 0.5], "texture": "#25"},
				"south": {"uv": [6, 7.5, 6.5, 8], "texture": "#25"},
				"west": {"uv": [0, 0.5, 2, 1], "texture": "#25"},
				"up": {"uv": [0.5, 3, 0, 1], "texture": "#25"},
				"down": {"uv": [1, 1, 0.5, 3], "texture": "#25"}
			}
		},
		{
			"name": "octagon",
			"from": [7.83199, 1.37957, -4.49463],
			"to": [8.16801, 1.74168, -4.40412],
			"rotation": {"angle": 0, "axis": "y", "origin": [8, 9.8202, 9.98644]},
			"faces": {
				"north": {"uv": [6.5, 7.5, 7, 8], "texture": "#25"},
				"east": {"uv": [7, 7.5, 7.5, 8], "texture": "#25"},
				"south": {"uv": [7.5, 7.5, 8, 8], "texture": "#25"},
				"west": {"uv": [7.5, 0, 8, 0.5], "texture": "#25"},
				"up": {"uv": [8, 1, 7.5, 0.5], "texture": "#25"},
				"down": {"uv": [8, 1, 7.5, 1.5], "texture": "#25"}
			}
		},
		{
			"name": "octagon",
			"from": [8.22338, 1.80274, -3.67555],
			"to": [8.62662, 2.23726, -0.00445],
			"rotation": {"angle": 0, "axis": "y", "origin": [8, 11.47524, 12.38923]},
			"faces": {
				"north": {"uv": [7.5, 1.5, 8, 2], "texture": "#25"},
				"east": {"uv": [1, 1, 3, 1.5], "texture": "#25"},
				"south": {"uv": [7.5, 2, 8, 2.5], "texture": "#25"},
				"west": {"uv": [1, 1.5, 3, 2], "texture": "#25"},
				"up": {"uv": [1.5, 4, 1, 2], "texture": "#25"},
				"down": {"uv": [2, 2, 1.5, 4], "texture": "#25"}
			}
		},
		{
			"name": "octagon",
			"from": [7.40463, 0.88399, -3.67555],
			"to": [7.80787, 1.31851, -0.00445],
			"rotation": {"angle": 0, "axis": "y", "origin": [8, 11.47524, 12.38923]},
			"faces": {
				"north": {"uv": [7.5, 2.5, 8, 3], "texture": "#25"},
				"east": {"uv": [2, 2, 4, 2.5], "texture": "#25"},
				"south": {"uv": [7.5, 3, 8, 3.5], "texture": "#25"},
				"west": {"uv": [2, 0, 4, 0.5], "texture": "#25"},
				"up": {"uv": [2.5, 4.5, 2, 2.5], "texture": "#25"},
				"down": {"uv": [3, 2.5, 2.5, 4.5], "texture": "#25"}
			}
		},
		{
			"name": "octagon",
			"from": [8.22338, 0.85274, -3.67555],
			"to": [8.62662, 1.28726, -0.00445],
			"rotation": {"angle": 0, "axis": "y", "origin": [8, 11.47524, 12.38923]},
			"faces": {
				"north": {"uv": [7.5, 3.5, 8, 4], "texture": "#25"},
				"east": {"uv": [2, 0.5, 4, 1], "texture": "#25"},
				"south": {"uv": [7.5, 4, 8, 4.5], "texture": "#25"},
				"west": {"uv": [3, 3, 5, 3.5], "texture": "#25"},
				"up": {"uv": [0.5, 5, 0, 3], "texture": "#25"},
				"down": {"uv": [1, 3, 0.5, 5], "texture": "#25"}
			}
		},
		{
			"name": "octagon",
			"from": [7.36324, 1.37957, -3.33838],
			"to": [8.63676, 1.74168, -0.34162],
			"rotation": {"angle": 0, "axis": "y", "origin": [8, 9.8202, 9.98644]},
			"faces": {
				"north": {"uv": [7.5, 4.5, 8, 5], "texture": "#25"},
				"east": {"uv": [3, 2.5, 4.5, 3], "texture": "#25"},
				"south": {"uv": [7.5, 5, 8, 5.5], "texture": "#25"},
				"west": {"uv": [4, 4, 5.5, 4.5], "texture": "#25"},
				"up": {"uv": [1.5, 5.5, 1, 4], "texture": "#25"},
				"down": {"uv": [2, 4, 1.5, 5.5], "texture": "#25"}
			}
		},
		{
			"name": "octagon",
			"from": [7.33199, 0.78582, -1.83838],
			"to": [8.66801, 2.30418, -1.59162],
			"rotation": {"angle": 0, "axis": "y", "origin": [8, 9.8202, 9.98644]},
			"faces": {
				"north": {"uv": [6.5, 2, 7, 3], "texture": "#25"},
				"east": {"uv": [6.5, 3, 7, 4], "texture": "#25"},
				"south": {"uv": [0, 7, 0.5, 8], "texture": "#25"},
				"west": {"uv": [0.5, 7, 1, 8], "texture": "#25"},
				"up": {"uv": [8, 6, 7.5, 5.5], "texture": "#25"},
				"down": {"uv": [8, 6, 7.5, 6.5], "texture": "#25"}
			}
		},
		{
			"name": "octagon",
			"from": [7.33199, 0.78582, -3.58838],
			"to": [8.66801, 2.30418, -3.34162],
			"rotation": {"angle": 0, "axis": "y", "origin": [8, 9.8202, 9.98644]},
			"faces": {
				"north": {"uv": [1, 7, 1.5, 8], "texture": "#25"},
				"east": {"uv": [1.5, 7, 2, 8], "texture": "#25"},
				"south": {"uv": [3, 7, 3.5, 8], "texture": "#25"},
				"west": {"uv": [3.5, 7, 4, 8], "texture": "#25"},
				"up": {"uv": [8, 7, 7.5, 6.5], "texture": "#25"},
				"down": {"uv": [8, 7, 7.5, 7.5], "texture": "#25"}
			}
		},
		{
			"name": "octagon",
			"from": [7.58583, 1.07431, -4.04149],
			"to": [8.41417, 2.01569, -3.38851],
			"rotation": {"angle": 0, "axis": "y", "origin": [8, 6.67562, 4.77989]},
			"faces": {
				"north": {"uv": [0, 8, 0.5, 8.5], "texture": "#25"},
				"east": {"uv": [0.5, 8, 1, 8.5], "texture": "#25"},
				"south": {"uv": [1, 8, 1.5, 8.5], "texture": "#25"},
				"west": {"uv": [1.5, 8, 2, 8.5], "texture": "#25"},
				"up": {"uv": [2.5, 8.5, 2, 8], "texture": "#25"},
				"down": {"uv": [3, 8, 2.5, 8.5], "texture": "#25"}
			}
		},
		{
			"name": "octagon",
			"from": [7.67958, 1.16806, -4.41649],
			"to": [8.32042, 1.92194, -4.04476],
			"rotation": {"angle": 0, "axis": "y", "origin": [8, 6.67562, 4.77989]},
			"faces": {
				"north": {"uv": [3, 8, 3.5, 8.5], "texture": "#25"},
				"east": {"uv": [3.5, 8, 4, 8.5], "texture": "#25"},
				"south": {"uv": [4, 8, 4.5, 8.5], "texture": "#25"},
				"west": {"uv": [4.5, 8, 5, 8.5], "texture": "#25"},
				"up": {"uv": [5.5, 8.5, 5, 8], "texture": "#25"},
				"down": {"uv": [6, 8, 5.5, 8.5], "texture": "#25"}
			}
		}
	],
	"display": {
		"thirdperson_righthand": {
			"rotation": [90, 0, 0],
			"translation": [0, 0, 3],
			"scale": [0.5, 0.5, 0.5]
		},
		"thirdperson_lefthand": {
			"rotation": [90, 0, 0],
			"translation": [0, 0, 3],
			"scale": [0.5, 0.5, 0.5]
		},
		"firstperson_righthand": {
			"rotation": [90, 0, 30]
		},
		"firstperson_lefthand": {
			"rotation": [90, 0, 30]
		},
		"fixed": {
			"rotation": [90, 45, 0],
			"translation": [1.25, -1.75, 6]
		},
		"ground": {
			"translation": [0, 4, 0]
		},
		"gui": {
			"rotation": [90, 0, 30],
			"translation": [-3, -8, 0]
		}
	}
}