{
  "type": "tardis:alembic",
  "required_water": 500,
  "ingredient": {
    "item": {
      "tag": "forge:dusts/cinnabar"
    },
    "count": 1
  },
  "result": {
    "special": "fluid",
    "generated_fluid": 250,
    "count": 0
  }
}